{
  "name": "vehicle",
  "plural": "vehicle",
  "base": "PersistedModel",
  "idInjection": true,
  "options": {
    "validateUpsert": true
  },
  "properties": {
    "carname": {
      "type": "string",
      "required": true
    },
    "bikename": {
      "type": "string",
      "required": true,
      "default": "honda"
    },
    "truckname": {
      "type": "string"
    }
  },
  "validations": [],
  "relations": {},
  "acls": [],
  "methods": {}
}
